<?xml version="1.0" encoding="UTF-8" standalone="no"?>
<svg id="svg2" xmlns:rdf="http://www.w3.org/1999/02/22-rdf-syntax-ns#" xmlns="http://www.w3.org/2000/svg" height="8.707" width="12" version="1.1" xmlns:cc="http://creativecommons.org/ns#" xmlns:dc="http://purl.org/dc/elements/1.1/" viewBox="0 0 12 8.7071068">
 <metadata id="metadata16">
  <rdf:RDF>
   <cc:Work rdf:about="">
    <dc:format>image/svg+xml</dc:format>
    <dc:type rdf:resource="http://purl.org/dc/dcmitype/StillImage"/>
    <dc:title/>
   </cc:Work>
  </rdf:RDF>
 </metadata>
 <g id="g4" font-family="sans-serif" fill-rule="evenodd" white-space="normal" font-weight="400" fill="#fff">
  <path id="path6" style="text-decoration-color:#000;block-progression:tb;isolation:auto;mix-blend-mode:normal;text-indent:0;text-decoration-line:none;text-transform:none;text-decoration-style:solid" d="m0 3.854v1h12v-1h-12z" overflow="visible"/>
  <path id="path8" style="text-decoration-color:#000;block-progression:tb;isolation:auto;mix-blend-mode:normal;text-indent:0;text-decoration-line:none;text-transform:none;text-decoration-style:solid" d="m7.885 0l-0.71 0.707 4 4 0.71-0.707-4-4z" overflow="visible"/>
  <path id="path10" style="text-decoration-color:#000;block-progression:tb;isolation:auto;mix-blend-mode:normal;text-indent:0;text-decoration-line:none;text-transform:none;text-decoration-style:solid" d="m11.176 4l-4 4 0.709 0.707 4-4-0.71-0.707z" overflow="visible"/>
 </g>
</svg>
