<?xml version="1.0" encoding="UTF-8" standalone="no"?>
<!-- Created with Inkscape (http://www.inkscape.org/) -->
<svg id="svg6119" xmlns:rdf="http://www.w3.org/1999/02/22-rdf-syntax-ns#" xmlns="http://www.w3.org/2000/svg" xmlns:osb="http://www.openswatchbook.org/uri/2009/osb" height="4.5155mm" width="9.5956mm" version="1.1" xmlns:cc="http://creativecommons.org/ns#" viewBox="0 0 33.999999 15.999977" xmlns:dc="http://purl.org/dc/elements/1.1/">
 <defs id="defs6121">
  <linearGradient id="SPMM_Nono_Mid-4" gradientTransform="matrix(-.000026033 0 0 .000042204 -897.43 1.3844e5)" osb:paint="solid">
   <stop id="stop4787" stop-color="#7a8a96" offset="0"/>
  </linearGradient>
 </defs>
 <metadata id="metadata6124">
  <rdf:RDF>
   <cc:Work rdf:about="">
    <dc:format>image/svg+xml</dc:format>
    <dc:type rdf:resource="http://purl.org/dc/dcmitype/StillImage"/>
    <dc:title/>
   </cc:Work>
  </rdf:RDF>
 </metadata>
 <g id="layer1" transform="translate(-288.71 -64.362)" fill="url(#SPMM_Nono_Mid-4)">
  <rect id="rect10635" height="2" width="34" y="71.362" x="288.71"/>
  <rect id="rect10637" height="2" width="34" y="64.362" x="288.71"/>
  <rect id="rect10639" height="2" width="34" y="78.362" x="288.71"/>
 </g>
</svg>
