<svg xmlns="http://www.w3.org/2000/svg" xmlns:osb="http://www.openswatchbook.org/uri/2009/osb" height="21" width="28" version="1.1" viewBox="0 0 7.4083331 5.5562504">
 <defs>
  <linearGradient id="a" osb:paint="solid">
   <stop stop-color="#434c55" offset="0"/>
  </linearGradient>
 </defs>
 <g transform="translate(0 -291.4)" stroke="url(#a)" fill="none">
  <g stroke-width=".2646px">
   <path d="m-2.475e-7 294.2h6.468"/>
   <path d="m4.598 292.6 1.617 1.667"/>
   <path d="m4.598 295.9 1.617-1.667"/>
  </g>
  <path d="m3.572 292.8v-1.257h3.704v5.292h-3.704v-1.257" stroke-miterlimit="4.3" stroke-width=".2646"/>
 </g>
</svg>
